frame,ground_truth,iou,nearest_pred
33285,[583  52 635 196],0.55542698449433,[588  51 644 151]
33285,[653  61 721 244],0.6604757482677334,[646  58 722 194]
33285,[820 124 896 289],0.0,[646  58 722 194]
33285,[594 329 815 666],0.7239858201396663,[606 350 810 614]
33285,[763 347 902 578],0.7054497582676986,[735 357 911 597]
33285,[746 526 921 719],0.7956748155648777,[708 526 916 718]
32775,[315  21 351 134],0.589517819706499,[304  12 356 146]
32775,[384  20 420 164],0.6695515342250197,[376  19 428 157]
32775,[436  11 480 175],0.6482494529540481,[432  10 498 168]
32775,[856 152 960 348],0.03728491167509114,[ 932  276 1072  546]
32775,[ 880  280 1056  625],0.5050848996640334,[ 932  276 1072  546]
32775,[1021  293 1149  533],0.6769483375359174,[1046  288 1160  514]
33300,[581  52 645 191],0.611721213439165,[588  52 646 148]
33300,[656  58 728 229],0.7270892510091195,[658  60 734 196]
33300,[824 123 900 288],0.0,[658  60 734 196]
33300,[598 338 799 668],0.761757524092991,[596 355 806 615]
33300,[762 361 894 582],0.6901661952736028,[734 360 912 598]
33300,[761 523 919 718],0.6997921693222808,[709 520 911 716]
32790,[312  14 349 146],0.7282721735254791,[305  14 355 142]
32790,[341  92 425 321],0.8132719786873335,[346  82 418 326]
32790,[382  22 421 152],0.6913840876105027,[380  16 432 158]
32790,[439  13 502 180],0.8160571899917515,[438  13 494 171]
32790,[854 149 954 351],0.039816760238349465,[ 921  284 1065  558]
32790,[ 873  285 1053  623],0.5624459809853068,[ 921  284 1065  558]
32790,[1012  294 1136  545],0.5761421319796954,[1042  286 1158  520]
33315,[581  55 637 196],0.0,[658  60 736 196]
33315,[656  55 731 231],0.7171252741034165,[658  60 736 196]
33315,[811 124 899 325],0.0,[658  60 736 196]
33315,[598 335 789 672],0.7570159806435722,[600 348 804 622]
33315,[758 367 902 568],0.6721744119334481,[735 355 909 603]
33315,[744 522 915 718],0.768068222195902,[703 520 911 714]
32805,[311  18 354 148],0.7745387973524855,[304  14 356 142]
32805,[358  95 422 326],0.6933652121936641,[340  94 430 332]
32805,[381  20 423 141],0.7680838500147623,[376  14 428 140]
32805,[470  29 527 184],0.6739484080873809,[466  20 544 178]
32805,[865 153 952 343],0.04516613937879079,[ 915  276 1075  542]
32805,[ 879  292 1059  625],0.5428362616710914,[ 915  276 1075  542]
32805,[1016  294 1150  543],0.642441470674998,[1045  285 1161  519]
33330,[584  55 635 194],0.5301033131457071,[588  53 646 147]
33330,[658  62 726 229],0.701605504587156,[656  60 734 194]
33330,[822 125 893 281],0.816114359974009,[813 118 893 288]
33330,[592 338 796 664],0.7421838244728626,[596 355 808 613]
33330,[759 363 894 588],0.1514684396069863,[596 355 808 613]
33330,[742 519 906 708],0.7533341343265649,[712 514 914 718]
32820,[310  20 354 150],0.8089171974522293,[305  12 355 146]
32820,[358  97 414 323],0.5821298420839519,[338  93 430 331]
32820,[410  28 454 177],0.7166666666666667,[408  22 460 156]
32820,[516  33 596 190],0.0,[408  22 460 156]
32820,[859 153 963 343],0.0520642668293675,[ 916  280 1076  540]
32820,[ 876  281 1068  627],0.574755822689707,[ 916  280 1076  540]
32820,[1017  297 1144  545],0.5994908433932824,[1045  289 1161  515]
33345,[581  52 635 192],0.5019673974142776,[589  52 647 146]
33345,[660  58 728 234],0.6733897202342225,[656  60 736 194]
33345,[816 124 896 280],0.8763605916829472,[815 116 895 290]
33345,[580 334 799 662],0.7921393237107813,[592 347 804 627]
33345,[752 366 900 586],0.5011571574042645,[726 369 916 705]
33345,[739 522 911 720],0.4753740927690332,[726 369 916 705]
32835,[309  15 357 147],0.859877692103164,[309  16 361 156]
32835,[371 105 495 328],0.5470417070805044,[402  50 506 314]
32835,[454  38 490 159],0.14397396441331495,[402  50 506 314]
32835,[559  39 643 203],0.5016042780748663,[576  39 642 143]
32835,[861 159 953 352],0.05240091764892018,[ 906  284 1080  560]
32835,[ 872  278 1058  627],0.5923767192217376,[ 906  284 1080  560]
32835,[1016  294 1152  541],0.7498010810217576,[1031  287 1159  517]
33360,[581  51 637 197],0.5339805825242718,[588  51 646 149]
33360,[656  53 732 238],0.6715362865221489,[658  61 736 193]
33360,[817 131 911 288],0.7812820358198155,[812 123 898 289]
33360,[548 330 764 676],0.7817500896426247,[565 352 757 656]
33360,[760 370 908 582],0.761060885830076,[730 367 916 589]
33360,[743 522 911 720],0.7729202335999249,[702 520 914 716]
32850,[311  18 355 148],0.7334826427771557,[306  16 362 156]
32850,[478  41 541 189],0.0,[614  59 698 195]
32850,[626  50 694 162],0.5850317952062613,[614  59 698 195]
32850,[549 120 660 318],0.11765093376371002,[614  59 698 195]
32850,[858 148 953 346],0.04367790346063389,[ 912  282 1074  564]
32850,[ 870  281 1066  627],0.621114934228226,[ 912  282 1074  564]
32850,[1022  296 1149  530],0.7879144772603732,[1033  286 1157  518]
33375,[584  52 640 200],0.0,[660  58 738 194]
33375,[659  60 729 229],0.7029680874804731,[660  58 738 194]
33375,[823 141 898 321],0.6694277547687103,[822 125 910 291]
33375,[558 333 742 659],0.8525884948677773,[561 346 749 638]
33375,[756 370 903 599],0.766731522070372,[730 372 916 592]
33375,[747 531 910 720],0.7027761778596936,[702 520 918 716]
32865,[314  17 366 175],0.7161416044170185,[308  20 362 154]
32865,[542  48 594 168],0.0,[645  52 711 190]
32865,[638  50 714 236],0.6467810264601709,[645  52 711 190]
32865,[748 116 816 270],0.0,[645  52 711 190]
32865,[859 149 951 344],0.05755487697645046,[ 892  285 1064  561]
32865,[ 875  280 1055  624],0.6995595799069882,[ 892  285 1064  561]
32865,[1016  299 1148  550],0.773624332482006,[1007  276 1141  536]
33390,[295  52 363 173],0.8147703392374662,[288  56 366 178]
33390,[585  55 639 197],0.5396678966789668,[588  52 646 144]
33390,[657  56 727 223],0.7322501669263298,[658  56 738 196]
33390,[852 157 948 339],0.0,[658  56 738 196]
33390,[558 328 744 666],0.8725095830769959,[564 350 742 658]
33390,[748 367 903 595],0.8448550493787831,[736 370 914 590]
33390,[752 526 920 719],0.17157894736842105,[736 370 914 590]
32880,[310  21 354 167],0.7418181818181818,[308  16 362 156]
32880,[568  45 636 205],0.4652082456878418,[580  52 644 148]
32880,[640  53 712 225],0.7055982263045372,[646  53 712 185]
32880,[866 118 926 203],0.0,[646  53 712 185]
32880,[856 149 963 347],0.06340272049428243,[ 894  292 1060  556]
32880,[ 876  289 1052  631],0.6706084576085054,[ 894  292 1060  556]
32880,[1018  293 1150  533],0.8303118201595359,[1026  285 1156  521]
33405,[363  67 431 283],0.888268156424581,[367  66 429 278]
33405,[581  54 644 193],0.5640112262521589,[590  52 646 148]
33405,[659  59 731 239],0.6894983558385224,[658  59 738 193]
33405,[879 175 959 351],0.0,[738 364 910 592]
33405,[538 314 722 675],0.9065402418993579,[540 320 716 662]
33405,[749 365 897 590],0.8499886412398717,[738 364 910 592]
33405,[770 531 922 717],0.7066493155484371,[718 528 920 722]
32895,[306  17 350 162],0.7839926643961226,[304  20 356 152]
32895,[584  54 635 184],0.6232131147540984,[588  48 640 152]
32895,[638  52 698 227],0.6405893845652881,[630  54 702 182]
32895,[853 157 949 350],0.053532280815050216,[ 900  288 1056  562]
32895,[ 948  158 1016  261],0.0,[1032  286 1154  522]
32895,[ 872  281 1056  634],0.6592609558711253,[ 900  288 1056  562]
32895,[1000  298 1152  552],0.6649813145746318,[1032  286 1154  522]
33420,[465  92 549 314],0.7882477035995253,[454  96 556 306]
33420,[581  53 637 197],0.4815210425122837,[589  50 647 144]
33420,[659  58 731 229],0.7270480754830013,[657  60 735 192]
33420,[ 919  194 1011  414],0.0,[719 358 899 602]
33420,[535 297 721 663],0.887042372765632,[536 286 712 678]
33420,[740 361 895 582],0.7809674145901454,[719 358 899 602]
33420,[740 540 920 718],0.7709020041864159,[718 516 918 720]
32910,[311  18 347 148],0.6917368345939775,[304   8 352 150]
32910,[576  44 636 206],0.06393889215319694,[628  53 702 185]
32910,[628  52 702 239],0.7074468085106383,[628  53 702 185]
32910,[870 153 949 333],0.03697882962004253,[ 900  294 1056  558]
32910,[ 873  285 1057  629],0.6518605562083823,[ 900  294 1056  558]
32910,[1012  294 1152  544],0.7418803418803419,[1029  278 1157  524]
32910,[1090  213 1147  298],0.03418179777172845,[1029  278 1157  524]
32400,[326  20 359 144],0.5898681471200555,[306  14 360 144]
32400,[833 158 914 335],0.004478695309724947,[ 910  278 1086  562]
32400,[ 916  294 1097  570],0.8384797666788188,[ 910  278 1086  562]
32400,[1021  310 1142  535],0.7640001108370972,[1018  304 1168  542]
33435,[583  56 635 201],0.0,[537 282 715 682]
33435,[671  58 727 186],0.0,[ 934  226 1054  452]
33435,[618 113 706 305],0.02460262612301313,[537 282 715 682]
33435,[549 290 713 672],0.8804107050808733,[537 282 715 682]
33435,[727 361 878 602],0.8377266265991671,[722 370 888 590]
33435,[754 539 910 720],0.7018502421457842,[709 526 915 718]
33435,[ 931  225 1047  451],0.9116127662585805,[ 934  226 1054  452]
32925,[306  20 345 159],0.7114516349705842,[300   9 348 149]
32925,[576  50 636 198],0.536234902124115,[587  50 641 152]
32925,[628  54 700 228],0.7480409885473177,[628  51 702 189]
32925,[856 145 955 350],0.6426153990786876,[854 141 948 291]
32925,[ 872  283 1056  634],0.6562243002040754,[ 898  289 1058  559]
32925,[1013  297 1145  545],0.7109578137436986,[1030  281 1156  527]
32925,[1211  308 1279  420],0.0,[1030  281 1156  527]
32415,[323  22 366 145],0.5429212421773527,[302  14 360 142]
32415,[860 158 940 341],0.029074354085858917,[ 912  281 1082  559]
32415,[ 917  301 1081  558],0.8922844746274288,[ 912  281 1082  559]
32415,[1015  316 1151  527],0.7735330156569095,[1018  304 1168  542]
33450,[583  56 638 209],0.0,[658  57 744 191]
33450,[656  56 736 237],0.674061433447099,[658  57 744 191]
33450,[734 133 815 323],0.024254428582106285,[658  57 744 191]
33450,[ 980  248 1109  486],0.0,[719 363 889 595]
33450,[548 288 712 658],0.829370401983498,[540 274 716 690]
33450,[731 355 875 589],0.802746140526303,[719 363 889 595]
33450,[726 528 890 720],0.9240580560035185,[720 526 894 718]
32940,[308  15 344 148],0.7176147054566507,[303  10 351 150]
32940,[584  53 633 201],0.016031815074877276,[632  53 700 181]
32940,[639  56 704 240],0.5874125874125874,[632  53 700 181]
32940,[847 162 939 366],0.0581640507345805,[ 896  288 1058  558]
32940,[ 873  284 1053  633],0.6617417510238776,[ 896  288 1058  558]
32940,[1018  301 1146  548],0.757256673094489,[1000  279 1144  535]
32430,[318  21 362 149],0.6846430405752439,[306  12 360 144]
32430,[887 178 964 345],0.056867690896583355,[ 913  284 1081  560]
32430,[ 912  296 1068  563],0.8694189152242949,[ 913  284 1081  560]
32430,[1018  310 1146  533],0.7963821496629597,[1022  303 1162  545]
33465,[588  55 636 203],0.0,[673  58 749 188]
33465,[665  64 744 239],0.5933935517900706,[673  58 749 188]
33465,[745 137 829 303],0.010823411872450254,[673  58 749 188]
33465,[ 975  260 1127  490],0.9004074241738343,[ 972  266 1134  486]
33465,[542 291 710 662],0.8250285429325075,[535 270 715 690]
33465,[736 352 880 584],0.770627419859077,[716 364 886 596]
33465,[749 533 900 719],0.8501891932798546,[727 530 899 718]
32955,[305  16 348 145],0.8068839046409931,[303  10 353 148]
32955,[584  52 636 211],0.5445427092320967,[586  54 644 152]
32955,[639  53 698 234],0.6414141414141414,[640  55 704 181]
32955,[855 163 951 359],0.6829611748139207,[853 158 951 302]
32955,[ 874  282 1062  639],0.5030635365412203,[ 917  276 1085  538]
32955,[1015  300 1153  550],0.6295405843307375,[1044  292 1164  518]
32445,[321  15 361 145],0.7006225990197377,[305  13 361 143]
32445,[ 935  214 1035  397],0.22466237090652308,[ 912  272 1082  568]
32445,[ 914  288 1097  563],0.8491998470697472,[ 912  272 1082  568]
32445,[1018  307 1146  541],0.8463385354141657,[1024  306 1160  544]
33480,[583  55 638 203],0.0,[664  59 754 195]
33480,[669  64 748 240],0.6572477749424286,[664  59 754 195]
33480,[748 135 832 284],0.017224687373941106,[664  59 754 195]
33480,[ 958  226 1077  474],0.9351748205702245,[ 963  228 1079  474]
33480,[519 352 759 662],0.802911654115202,[500 346 776 682]
33480,[753 346 897 575],0.8346551371264839,[736 344 904 570]
33480,[728 522 900 720],0.8873978996499416,[716 517 896 719]
32970,[308  17 348 153],0.7812855517633674,[304  10 352 150]
32970,[579  52 635 217],0.4869347218204609,[586  54 644 154]
32970,[632  55 704 239],0.6016290262865606,[640  56 704 180]
32970,[850 147 918 300],0.0,[640  56 704 180]
32970,[ 904  280 1067  580],0.8096837839279049,[ 912  279 1090  571]
32970,[1013  298 1163  546],0.6672724730882147,[1035  289 1181  519]
32970,[1064  410 1232  693],0.1881895814304148,[1035  289 1181  519]
32460,[324  21 364 146],0.6202385532897268,[306  14 362 144]
32460,[1046  251 1114  342],0.07623237314692058,[ 985  288 1157  560]
32460,[ 916  298 1063  559],0.7562359824475865,[ 912  274 1086  566]
32460,[1022  319 1147  537],0.5842596709648733,[ 985  288 1157  560]
33495,[581  50 637 200],0.0,[664  58 752 192]
33495,[662  65 746 231],0.6816373668677018,[664  58 752 192]
33495,[754 139 878 317],0.0,[664  58 752 192]
33495,[ 914  195 1017  429],0.9151844223928103,[ 914  195 1022  439]
33495,[536 350 777 668],0.8518936557781925,[513 351 793 665]
33495,[754 350 910 585],0.706404666626849,[723 360 919 606]
33495,[735 521 890 720],0.20191743298767365,[723 360 919 606]
32985,[305  16 353 155],0.8624511082138201,[302  19 356 153]
32985,[574  46 638 212],0.4697102721685689,[589  50 643 156]
32985,[647  56 711 237],0.6663512341298005,[642  55 712 185]
32985,[831 144 902 358],0.0,[ 934  278 1080  566]
32985,[ 926  283 1114  575],0.7440119760479041,[ 934  278 1080  566]
32985,[1018  314 1154  549],0.6761001994154123,[1030  297 1164  511]
32985,[1065  412 1244  692],0.1436678399540263,[1030  297 1164  511]
32475,[317  22 357 152],0.6604172167942963,[304  13 358 143]
32475,[ 916  294 1072  562],0.852761231701161,[ 910  280 1084  562]
32475,[1018  306 1161  540],0.7494945921358537,[1029  278 1169  528]
32475,[1091  280 1159  325],0.08968381791981012,[1029  278 1169  528]
33510,[580  52 639 209],0.0,[672  58 752 192]
33510,[658  65 745 236],0.5706367853485149,[672  58 752 192]
33510,[738 138 854 320],0.055635586905767226,[841 161 971 321]
33510,[859 170 963 364],0.6232914160743576,[841 161 971 321]
33510,[552 371 811 672],0.7961417025146372,[554 368 856 688]
33510,[765 363 900 594],0.1934939915316267,[554 368 856 688]
33510,[731 533 903 718],0.17904085257548846,[554 368 856 688]
33000,[300  22 340 152],0.6553996339231238,[297   4 351 152]
33000,[654  55 730 242],0.6359220238470759,[659  50 737 194]
33000,[585  51 641 198],0.0,[659  50 737 194]
33000,[822 149 906 351],0.0,[659  50 737 194]
33000,[ 935  289 1121  565],0.7378229563744176,[ 950  288 1092  556]
33000,[1019  328 1159  546],0.3049680090327437,[ 950  288 1092  556]
32490,[321  20 357 150],0.6136393790632878,[304  12 358 144]
32490,[ 918  286 1102  557],0.8247807256978564,[ 910  272 1092  544]
32490,[1022  311 1162  540],0.7905464242951997,[1024  293 1170  519]
32490,[1045  249 1119  321],0.05931440726499223,[1024  293 1170  519]
33525,[582  52 638 201],0.0,[673  58 753 192]
33525,[659  64 751 239],0.59554698457223,[673  58 753 192]
33525,[739 139 827 310],0.031848385955254986,[673  58 753 192]
33525,[833 162 922 363],0.0,[673  58 753 192]
33525,[547 367 787 685],0.8215938358287113,[530 362 810 694]
33525,[716 542 900 719],0.12981387539296943,[530 362 810 694]
33525,[773 353 908 544],0.061686670037522956,[530 362 810 694]
33015,[300  18 340 149],0.7617171006333567,[296   6 344 150]
33015,[580  51 636 207],0.0,[676  58 752 180]
33015,[664  63 736 250],0.44995936738138403,[676  58 752 180]
33015,[822 146 899 349],0.0,[676  58 752 180]
33015,[ 933  296 1084  576],0.5674509741952816,[ 952  285 1152  565]
33015,[1016  320 1168  542],0.5087678395976619,[ 952  285 1152  565]
33015,[1070  407 1250  684],0.14099057712442042,[ 952  285 1152  565]
32505,[316  15 359 145],0.7501639344262295,[304  12 360 144]
32505,[1007  215 1055  306],0.007054150982542458,[1022  300 1162  508]
32505,[ 916  264 1089  554],0.758710536325599,[ 931  250 1069  550]
32505,[1020  298 1160  533],0.862200985338636,[1022  300 1162  508]
33540,[585  51 639 189],0.0,[696  57 756 175]
33540,[689  68 749 245],0.4747252747252747,[696  57 756 175]
33540,[744 133 821 289],0.316622691292876,[777 126 841 236]
33540,[837 155 912 355],0.018567999637697567,[777 126 841 236]
33540,[759 353 903 591],0.6390020836022348,[728 342 920 622]
33540,[542 363 798 675],0.8527163831027721,[530 356 814 686]
33540,[ 843  540 1011  718],0.08298936033841815,[728 342 920 622]
33030,[298  14 342 149],0.7647132325377983,[295   4 347 154]
33030,[573  52 641 199],0.4965479149406241,[584  53 648 145]
33030,[669  62 740 243],0.4519589552238806,[684  62 756 180]
33030,[828 145 900 356],0.0,[684  62 756 180]
33030,[ 937  295 1089  569],0.6162207357859532,[ 956  276 1140  570]
33030,[1020  304 1167  539],0.6514738528114199,[1056  300 1168  510]
32520,[315  14 359 139],0.7751196172248804,[306  13 360 145]
32520,[ 912  195 1000  415],0.8655586334256694,[ 915  190 1007  412]
32520,[ 920  282 1104  563],0.7652791430798956,[ 908  262 1092  542]
32520,[1023  306 1159  531],0.7240062541343436,[1039  294 1163  504]
33555,[583  54 635 202],0.0,[696  66 758 174]
33555,[692  73 754 249],0.5015,[696  66 758 174]
33555,[750 130 814 301],0.022956580886520802,[696  66 758 174]
33555,[834 161 914 351],0.0,[696  66 758 174]
33555,[540 362 788 672],0.8164113473621879,[524 372 818 670]
33555,[727 331 877 595],0.7417032484635645,[746 340 884 622]
33555,[ 932  485 1076  720],0.7748875236942472,[ 906  476 1084  718]
33045,[296  15 344 159],0.7618658892128279,[298   3 350 153]
33045,[585  53 640 202],0.0,[298   3 350 153]
33045,[686  61 760 238],0.0,[ 932  284 1100  554]
33045,[821 146 902 346],0.0,[ 932  284 1100  554]
33045,[ 931  289 1122  572],0.8118397052715223,[ 932  284 1100  554]
33045,[1023  304 1164  541],0.7595173645107413,[1040  300 1166  514]
32535,[322  10 361 143],0.6660779613977545,[304  12 362 144]
32535,[895 173 979 367],0.032785315243415804,[ 954  289 1136  551]
32535,[ 954  288 1115  552],0.8793263575010836,[ 954  289 1136  551]
32535,[1074  302 1159  477],0.5697722567287785,[1051  286 1165  516]
33570,[585  52 633 199],0.0,[834 170 914 298]
33570,[706  73 770 231],0.0,[834 170 914 298]
33570,[750 137 815 312],0.0,[834 170 914 298]
33570,[839 163 918 347],0.6347685335059889,[834 170 914 298]
33570,[586 337 761 634],0.8754026672007744,[581 332 769 648]
33570,[740 341 928 585],0.7612111851439449,[756 326 946 596]
33570,[ 893  517 1044  715],0.8214821312356753,[ 875  525 1049  719]
33060,[295  17 344 154],0.7166914881429717,[299   6 353 152]
33060,[577  51 641 202],0.49606970357041386,[588  51 648 147]
33060,[674  61 745 239],0.5023255813953489,[686  57 752 177]
33060,[827 145 902 336],0.0,[686  57 752 177]
33060,[ 936  281 1104  573],0.831972081972082,[ 927  270 1101  550]
33060,[1025  298 1160  537],0.7882390745501285,[1040  296 1166  520]
32550,[318  16 365 146],0.7542940674869046,[306  12 366 144]
32550,[864 160 944 352],0.0,[ 948  284 1144  556]
32550,[ 945  297 1085  567],0.6394354148845167,[ 948  284 1144  556]
32550,[1079  315 1154  470],0.18604651162790697,[ 948  284 1144  556]
33585,[581  57 635 201],0.0,[726  68 800 178]
33585,[710  75 794 253],0.438523588364703,[726  68 800 178]
33585,[749 136 811 303],0.0,[834 166 918 302]
33585,[842 160 918 289],0.7886346741554473,[834 166 918 302]
33585,[545 361 775 667],0.7644471752417294,[524 350 812 670]
33585,[ 817  343 1010  627],0.9075532322240165,[ 802  346 1012  626]
33585,[ 932  488 1068  718],0.14130448424302514,[ 802  346 1012  626]
33075,[310  19 342 158],0.5338645418326693,[298   6 352 152]
33075,[581  50 641 197],0.548849685339936,[586  53 648 147]
33075,[673  65 749 242],0.6122854681598303,[666  60 750 184]
33075,[828 147 898 347],0.0,[666  60 750 184]
33075,[ 934  281 1106  574],0.8046302250803858,[ 930  266 1094  552]
33075,[1023  297 1159  544],0.753185649872574,[1041  294 1165  522]
32565,[314  17 361 144],0.7332617257429288,[304  12 366 144]
32565,[859 146 931 357],0.6518235055371949,[856 131 932 299]
32565,[ 944  302 1091  557],0.6892072198954821,[ 945  290 1145  554]
32565,[1039  309 1159  520],0.8066853118576676,[1046  284 1164  518]
33600,[586  57 638 187],0.0,[718  72 788 180]
33600,[712  72 771 214],0.5641713792772932,[718  72 788 180]
33600,[753 121 804 276],0.15776787670732598,[718  72 788 180]
33600,[839 162 915 358],0.0,[718  72 788 180]
33600,[554 344 785 669],0.9154193991961075,[555 356 781 660]
33600,[ 828  347 1020  638],0.7885565711701819,[ 816  364 1030  616]
33600,[ 852  531 1007  718],0.7966318076870841,[ 824  524 1008  722]
33090,[305  14 353 156],0.7679558011049724,[298   6 356 152]
33090,[581  55 637 192],0.0,[692  57 770 181]
33090,[673  67 765 242],0.4798962386511025,[692  57 770 181]
33090,[828 139 900 340],0.0,[692  57 770 181]
33090,[ 888  264 1067  590],0.7753744965665111,[ 889  276 1101  574]
33090,[1025  307 1160  537],0.7885334196662448,[1017  309 1165  505]
32580,[310  16 354 143],0.7597942223981005,[304  12 360 144]
32580,[870 154 957 338],0.007745125783821624,[ 948  287 1138  555]
32580,[ 947  304 1091  562],0.6892831364206208,[ 948  287 1138  555]
32580,[1038  307 1154  538],0.7088104476199489,[1048  286 1164  516]
33615,[589  53 637 197],0.0,[700  63 762 175]
33615,[696  74 760 260],0.47670855041372967,[700  63 762 175]
33615,[785 121 855 279],0.6313856427378965,[794 116 858 242]
33615,[846 167 933 351],0.04195863591965006,[794 116 858 242]
33615,[ 879  356 1023  562],0.2699166374403108,[ 758  336 1060  702]
33615,[576 296 763 662],0.91193732234023,[571 316 763 658]
33615,[728 528 908 720],0.22074363665221494,[ 758  336 1060  702]
33105,[310  10 362 167],0.8079324699352451,[308  18 360 154]
33105,[575  54 638 191],0.0,[695  58 769 182]
33105,[674  68 770 243],0.48395241835933117,[695  58 769 182]
33105,[822 153 906 330],0.0,[695  58 769 182]
33105,[771 237 950 590],0.8478636589068065,[787 247 951 605]
33105,[1007  306 1147  533],0.9565060783430887,[1006  308 1148  538]
33105,[ 902  530 1053  720],0.8011287687509283,[ 878  535 1046  721]
32595,[310  16 354 146],0.7839297771775827,[305  12 359 144]
32595,[866 156 958 340],0.011846207135434708,[ 944  284 1146  558]
32595,[ 949  303 1085  570],0.6102768449076894,[ 944  284 1146  558]
32595,[1039  312 1154  525],0.4016893477240732,[ 944  284 1146  558]
33630,[579  54 636 209],0.0,[698  64 766 174]
33630,[695  70 759 264],0.4709201388888889,[698  64 766 174]
33630,[865 158 960 335],0.0,[698  64 766 174]
33630,[842 117 906 265],0.0,[698  64 766 174]
33630,[ 881  344 1021  566],0.5320374112555661,[ 814  356 1024  612]
33630,[721 533 933 719],0.11366596414786047,[ 814  356 1024  612]
33630,[629 297 860 633],0.7862921419052915,[606 298 890 620]
33120,[314  16 358 158],0.778584392014519,[310  14 366 158]
33120,[578  56 638 197],0.0,[686  58 766 188]
33120,[664  61 755 244],0.48226492276225846,[686  58 766 188]
33120,[818 146 902 348],0.0,[686  58 766 188]
33120,[624 234 800 610],0.8270012071494399,[632 214 806 636]
33120,[1004  307 1148  536],0.9444114065641549,[1000  304 1148  540]
33120,[802 602 942 720],0.0,[1000  304 1148  540]
32610,[314  18 354 143],0.7062200956937799,[304  12 358 144]
32610,[865 155 957 339],0.7139585188955337,[852 141 970 335]
32610,[ 950  303 1090  565],0.6406382079459002,[ 946  282 1146  560]
32610,[1042  311 1161  533],0.3940327140549273,[ 946  282 1146  560]
33645,[581  58 638 204],0.0,[718  62 802 180]
33645,[694  74 759 261],0.24926507293804426,[718  62 802 180]
33645,[864 155 947 332],0.0,[718  62 802 180]
33645,[922 142 969 264],0.0,[718  62 802 180]
33645,[738 275 892 603],0.18734174261076558,[ 828  357 1020  619]
33645,[ 840  348 1016  628],0.8629344702938178,[ 828  357 1020  619]
33645,[680 546 868 720],0.8829931972789116,[683 549 859 713]
33135,[304  18 360 158],0.8544427547251793,[300  17 364 155]
33135,[581  51 637 201],0.0,[646  52 724 196]
33135,[656  54 720 241],0.6463838664812239,[646  52 724 196]
33135,[817 149 901 350],0.638172360165174,[814 142 904 288]
33135,[529 260 744 672],0.8135236927388981,[517 265 767 651]
33135,[1008  304 1152  542],0.9067890105750344,[1000  300 1148  542]
32625,[316  20 360 139],0.6829913964262078,[304  12 358 144]
32625,[864 163 956 349],0.04217941858391296,[ 914  284 1102  562]
32625,[ 922  289 1083  563],0.8392036753445635,[ 914  284 1102  562]
32625,[1031  306 1159  531],0.2479996342188286,[ 914  284 1102  562]
33660,[587  55 638 193],0.0,[ 764  342 1054  690]
33660,[708  72 784 245],0.0,[ 764  342 1054  690]
33660,[864 160 974 323],0.0,[ 764  342 1054  690]
33660,[726 267 893 604],0.2753860156419901,[ 764  342 1054  690]
33660,[ 849  342 1021  599],0.43948837621481107,[ 764  342 1054  690]
33660,[709 585 916 720],0.82717529020991,[717 580 899 716]
33660,[ 973  179 1049  336],0.0,[ 764  342 1054  690]
33150,[308  20 359 157],0.8417150623996046,[302  22 360 152]
33150,[580  48 639 194],0.0,[644  54 724 194]
33150,[654  54 718 228],0.6723644633555865,[644  54 724 194]
33150,[829 150 900 343],0.6031688217082498,[817 145 903 287]
33150,[1005  301 1149  539],0.9396797543320904,[ 998  302 1148  540]
33150,[529 275 709 666],0.9037264559428447,[528 294 716 662]
32640,[306  16 358 141],0.9412262156448203,[305  14 359 142]
32640,[866 155 953 337],0.03590970750964045,[ 916  276 1092  568]
32640,[ 918  279 1058  556],0.7558280789032221,[ 916  276 1092  568]
32640,[1038  304 1157  525],0.79918223213456,[1026  311 1166  533]
33675,[586  53 638 211],0.0,[728  66 814 182]
33675,[707  73 788 251],0.3697580867360996,[728  66 814 182]
33675,[892 178 986 384],0.04581719970787229,[ 822  350 1024  626]
33675,[732 270 884 612],0.17982222897515765,[ 822  350 1024  626]
33675,[ 840  345 1019  631],0.8591959469938482,[ 822  350 1024  626]
33675,[1031  206 1096  351],0.0,[ 822  350 1024  626]
33165,[328  21 384 203],0.7129690585911784,[322  18 388 172]
33165,[653  52 720 226],0.706737408241878,[645  54 725 196]
33165,[585  51 637 198],0.5577689243027888,[588  50 646 148]
33165,[823 146 899 348],0.6637525218560861,[820 144 900 286]
33165,[1009  303 1148  538],0.8960485992460608,[ 998  302 1150  542]
33165,[542 285 730 660],0.9188379518309748,[531 291 731 663]
32655,[323  20 355 141],0.5391723583768582,[304  13 360 143]
32655,[865 154 963 347],0.05190990740311336,[ 918  275 1086  563]
32655,[ 917  285 1045  562],0.7244447158940532,[ 918  275 1086  563]
32655,[1019  308 1147  540],0.6808500700607193,[ 986  283 1152  533]
33690,[584  55 635 212],0.0,[719  60 815 180]
33690,[708  69 788 245],0.4299659975869255,[719  60 815 180]
33690,[ 934  199 1026  383],0.7416267942583732,[ 920  190 1030  398]
33690,[1040  214 1112  334],0.0,[ 920  190 1030  398]
33690,[ 847  346 1026  620],0.08460643313242228,[ 920  190 1030  398]
33690,[655 263 847 610],0.5843447393834991,[602 260 898 646]
33690,[643 603 867 718],0.0754924164436209,[602 260 898 646]
33180,[346  20 406 205],0.8251160557067392,[342  18 408 188]
33180,[577  52 640 202],0.0,[644  54 726 192]
33180,[649  53 721 239],0.6746226979589123,[644  54 726 192]
33180,[828 148 900 350],0.6325978735173007,[820 144 900 288]
33180,[1005  312 1149  542],0.9161955437312936,[ 998  307 1150  539]
33180,[543 280 715 671],0.8488200783983584,[534 292 728 664]
32670,[316  25 356 143],0.6669856459330143,[306  12 360 144]
32670,[866 162 953 343],0.03972920887483323,[ 918  277 1080  565]
32670,[ 914  271 1074  563],0.9154425956400724,[ 918  277 1080  565]
32670,[1018  297 1147  536],0.722305822433152,[ 991  290 1153  554]
33705,[582  52 637 191],0.0,[631 278 807 616]
33705,[699  67 778 227],0.0,[ 930  190 1052  384]
33705,[ 938  195 1027  352],0.5928705440900562,[ 930  190 1052  384]
33705,[1043  220 1115  331],0.036081311813408075,[ 930  190 1052  384]
33705,[ 852  349 1012  614],0.8331055221432476,[ 828  350 1014  622]
33705,[ 847  535 1026  719],0.2125145543145457,[ 828  350 1014  622]
33705,[638 253 802 617],0.8700013998413513,[631 278 807 616]
33195,[348  19 404 179],0.7265246853823815,[335  14 409 176]
33195,[585  51 637 198],0.0,[655  50 735 196]
33195,[661  55 717 203],0.6577279375914188,[655  50 735 196]
33195,[829 146 901 285],0.9413281753707285,[826 146 902 286]
33195,[552 280 708 653],0.757957098534289,[532 293 726 665]
33195,[1014  312 1141  511],0.7437752404195357,[1000  307 1148  537]
32685,[318  23 354 146],0.5481822709163346,[309   9 367 141]
32685,[862 162 949 339],0.03961122317990097,[ 917  268 1081  550]
32685,[ 918  270 1062  560],0.846297642538166,[ 917  268 1081  550]
32685,[1019  290 1139  533],0.7075088642342445,[1031  290 1163  516]
32685,[338   0 380 127],0.3649933544627339,[309   9 367 141]
33720,[586  55 634 204],0.0,[720  66 810 180]
33720,[704  71 779 246],0.3828084217852793,[720  66 810 180]
33720,[656 222 843 614],0.8479048043871849,[665 228 831 628]
33720,[828 297 996 623],0.7458779884583677,[834 316 974 644]
33720,[ 969  470 1148  718],0.0116460919043024,[834 316 974 644]
33720,[ 923  193 1027  385],0.05776494112419462,[834 316 974 644]
33720,[1042  219 1113  332],0.0,[834 316 974 644]
33210,[353   6 405 163],0.6236801805432417,[339   3 417 151]
33210,[590  53 638 192],0.0,[654  50 736 194]
33210,[660  57 719 199],0.6712606404539927,[654  50 736 194]
33210,[838 143 906 288],0.7318258820063342,[820 136 908 286]
33210,[1016  318 1144  524],0.790380346307533,[1002  306 1146  538]
33210,[540 281 708 652],0.8177237185056473,[530 291 724 665]
33210,[840 605 963 719],0.6001970628255056,[774 616 962 720]
32700,[318  19 354 146],0.6898976004890723,[306  12 354 140]
32700,[360   1 400 138],0.6513257796986334,[352  -2 412 136]
32700,[863 160 947 343],0.03980467366021227,[ 910  276 1086  568]
32700,[ 917  292 1052  549],0.6765777752068028,[ 910  276 1086  568]
32700,[1026  294 1150  532],0.8310312376673447,[1024  294 1162  512]
33225,[354   1 410 151],0.7044599677592692,[343   0 417 138]
33225,[585  52 637 190],0.0,[656  54 734 194]
33225,[663  59 726 219],0.6832561425543606,[656  54 734 194]
33225,[807 131 891 290],0.0,[656  54 734 194]
33225,[ 986  304 1142  545],0.8423800587074731,[ 981  312 1153  534]
33225,[542 284 728 675],0.8491446345256609,[533 299 723 655]
33225,[768 537 926 720],0.0,[533 299 723 655]
32715,[306  21 350 149],0.7379708551003574,[307  14 359 142]
32715,[361   6 432 163],0.8929129755080771,[364   4 432 154]
32715,[866 151 962 344],0.1189754271250791,[ 868  250 1050  610]
32715,[ 853  262 1036  599],0.8030309420381538,[ 868  250 1050  610]
32715,[1012  289 1152  537],0.8094294770206022,[1027  291 1153  517]
33750,[584  58 635 200],0.0,[810 270 994 638]
33750,[706  69 790 241],0.0,[810 270 994 638]
33750,[823 264 987 617],0.8291098115659519,[810 270 994 638]
33750,[ 946  291 1113  586],0.5235080156271049,[ 980  298 1124  500]
33750,[1110  414 1245  676],0.020423174434254593,[ 980  298 1124  500]
33750,[1050  208 1131  319],0.04463198896372637,[ 980  298 1124  500]
33750,[ 942  181 1026  395],0.10685783221974758,[ 980  298 1124  500]
33240,[338   1 406 136],0.8184128777181587,[332  -2 408 126]
33240,[584  52 638 196],0.0,[667  60 753 194]
33240,[658  64 742 223],0.64695561764897,[667  60 753 194]
33240,[826 135 910 308],0.7995509163733463,[826 123 914 289]
33240,[571 304 783 647],0.890684360489658,[565 326 785 642]
33240,[762 544 918 719],0.024928393818261937,[565 326 785 642]
33240,[ 926  299 1054  562],0.8153350654974559,[ 930  309 1066  549]
32730,[312  19 352 143],0.7058256438507092,[308  11 360 147]
32730,[375  18 418 149],0.6747995817357965,[375  12 431 162]
32730,[415  14 483 173],0.7500608815650621,[424  11 490 167]
32730,[861 152 961 346],0.06902263942573164,[ 912  262 1074  544]
32730,[ 914  273 1058  576],0.7768520159940121,[ 912  262 1074  544]
32730,[1020  286 1148  539],0.6928071506872417,[1045  280 1157  522]
33255,[586  56 638 193],0.0,[669  59 753 187]
33255,[671  68 745 230],0.6342494714587738,[669  59 753 187]
33255,[821 125 893 285],0.8489606047390609,[814 124 898 284]
33255,[581 320 769 666],0.8848756145886842,[576 332 772 650]
33255,[829 311 965 572],0.0,[576 332 772 650]
33255,[758 533 917 719],0.019452045761761894,[576 332 772 650]
32745,[319  18 355 145],0.6285335102853351,[310  12 364 148]
32745,[385  20 417 157],0.6074429771908764,[377  16 427 162]
32745,[428   9 487 176],0.9145129224652088,[428  10 490 170]
32745,[862 154 949 346],0.022887151451021888,[ 934  274 1062  546]
32745,[ 915  289 1049  577],0.6755146262188516,[ 934  274 1062  546]
32745,[1022  294 1146  537],0.6736567339277335,[1044  286 1158  516]
33270,[582  51 639 201],0.0,[660  60 748 188]
33270,[664  64 736 230],0.627277101807933,[660  60 748 188]
33270,[820 121 900 283],0.8149986584384223,[810 122 894 284]
33270,[594 323 814 675],0.6246687005052568,[571 319 883 717]
33270,[773 353 921 591],0.19802342332927766,[571 319 883 717]
33270,[756 531 932 718],0.17832477817428685,[571 319 883 717]
32760,[313  18 353 142],0.7335050808644625,[308  12 358 148]
32760,[382  21 421 158],0.7283282754980868,[378  17 430 159]
32760,[430   7 482 172],0.7639157325086974,[432  12 492 166]
32760,[860 151 960 350],0.03857285984637649,[ 928  288 1060  556]
32760,[ 917  275 1053  567],0.8065391205025699,[ 928  288 1060  556]
32760,[1023  294 1147  540],0.6726608271941528,[1044  284 1158  516]
33735,[582  58 634 197],0.0,
33735,[706  68 780 251],0.0,
33735,[1057  222 1121  322],0.0,
33735,[ 927  199 1021  392],0.0,
33735,[ 865  300 1037  604],0.0,
33735,[740 278 904 612],0.0,
33735,[1032  427 1195  699],0.0,
